…
Let’s refine our analysis to explore the average number of entries per
day per user across different data sets. This will provide insights into
the frequency of user engagement with the product over time.

``` r
user_dailyAvgEntries <- user_summary %>%
  group_by(Id) %>%
  summarise(average_entries = mean(entries))
print(user_dailyAvgEntries)
```

    ## # A tibble: 33 × 2
    ##            Id average_entries
    ##         <dbl>           <dbl>
    ##  1 1503960366            25.2
    ##  2 1624580081            31  
    ##  3 1644430081            24.8
    ##  4 1844505072            25.4
    ##  5 1927972279            21.7
    ##  6 2022484408            31  
    ##  7 2026352035            26  
    ##  8 2320127002            25  
    ##  9 2347167796            17.5
    ## 10 2873212765            25.2
    ## # ℹ 23 more rows
…
